{
    "id": "org.kde.juk",
    "branch": "master",
    "runtime": "org.kde.Platform",
    "runtime-version": "5.14",
    "sdk": "org.kde.Sdk",
    "command": "juk",
    "tags": ["nightly"],
    "desktop-file-name-suffix": " (Nightly)",
    "finish-args": ["--share=ipc", "--socket=x11", "--socket=wayland", "--filesystem=host" ],

    "modules": [
        {
            "name": "taglib",
            "buildsystem": "cmake-ninja",
            "config-opts": ["-DENABLE_TESTING=OFF" , "-DBUILD_SHARED_LIBS=ON"],
            "sources": [ { "type": "git", "url": "https://github.com/taglib/taglib.git", "branch": "v1.11.1" } ]
        },
        {
            "name": "juk",
            "buildsystem": "cmake-ninja",
            "config-opts": [ "-DENABLE_TESTING=OFF" ],
            "sources": [
                { "type": "git", "url": "git://anongit.kde.org/juk.git" }
            ]
        }
    ]
}
