{
    "id": "org.kde.spectacle",
    "branch": "master",
    "runtime": "org.kde.Platform",
    "runtime-version": "5.14",
    "sdk": "org.kde.Sdk",
    "command": "spectacle",
    "tags": ["nightly"],
    "desktop-file-name-suffix": " (Nightly)",
    "finish-args": ["--share=ipc", "--socket=x11", "--socket=wayland",
        "--talk-name=org.kde.kglobalaccel",
        "--talk-name=org.kde.KWin"],

    "modules": [
        {
            "name": "purpose",
            "buildsystem": "cmake-ninja",
            "sources": [ { "type": "git", "url": "git://anongit.kde.org/purpose.git", "branch": "v5.66.0" } ]
        },
        {
            "name": "spectacle",
            "buildsystem": "cmake-ninja",
            "sources": [
                { "type": "git", "url": "git://anongit.kde.org/spectacle.git" }
            ]
        }
    ]
}
