{
    "id": "org.kde.kleopatra",
    "branch": "master",
    "runtime": "org.kde.Platform",
    "runtime-version": "5.14",
    "sdk": "org.kde.Sdk",
    "command": "kleopatra",
    "tags": ["nightly"],
    "desktop-file-name-suffix": " (Nightly)",
    "finish-args": ["--share=ipc", "--socket=x11", "--socket=wayland", "--filesystem=host" ],

    "modules": [
        "boost.json",
        "gpgme.json",
        { "name": "kmime", "buildsystem": "cmake-ninja", "sources": [ { "type": "git", "url": "git://anongit.kde.org/kmime" } ] },
        { "name": "libkleo", "buildsystem": "cmake-ninja", "sources": [ { "type": "git", "url": "git://anongit.kde.org/libkleo.git" } ] },
        { "name": "kleopatra", "buildsystem": "cmake-ninja", "sources": [ { "type": "git", "url": "git://anongit.kde.org/kleopatra.git" } ] }
    ]
}
