{
    "id": "org.kde.klinkstatus",
    "branch": "master",
    "runtime": "org.kde.Platform",
    "runtime-version": "5.14",
    "sdk": "org.kde.Sdk",
    "command": "klinkstatus",
    "tags": ["nightly"],
    "desktop-file-name-suffix": " (Nightly)",
    "finish-args": ["--share=ipc", "--socket=x11", "--socket=wayland", "--filesystem=host" ],

    "modules": [
        {
            "name": "klinkstatus",
            "buildsystem": "cmake-ninja",
            "sources": [
                { "type": "git", "url": "git://anongit.kde.org/klinkstatus.git", "branch": "frameworks----------" }
            ]
        }
    ]
}
